R pragmático
…
img_purple <- img_import('http://curso-r.github.io/posts/assets/fig/purple_wave.jpg')
img_xadrez <- img_import('http://curso-r.github.io/posts/assets/fig/xadrez_colorido.jpg')

img_purple

## # A tibble: 70,560 × 7
##        x     y         r          g         b     cor    id
##    <int> <int>     <dbl>      <dbl>     <dbl>   <chr> <int>
## 1      1   210 0.1333333 0.05098039 0.1254902 #220D20     1
## 2      1   209 0.1333333 0.05098039 0.1254902 #220D20     2
## 3      1   208 0.1450980 0.05490196 0.1333333 #250E22     3
## 4      1   207 0.1568627 0.06666667 0.1450980 #281125     4
## 5      1   206 0.1647059 0.06666667 0.1529412 #2A1127     5
## 6      1   205 0.1803922 0.07058824 0.1607843 #2E1229     6
## 7      1   204 0.1921569 0.07450980 0.1764706 #31132D     7
## 8      1   203 0.2039216 0.08627451 0.1882353 #341630     8
## 9      1   202 0.2235294 0.09411765 0.2078431 #391835     9
## 10     1   201 0.2313725 0.09411765 0.2117647 #3B1836    10
## # ... with 70,550 more rows
…
Baixar um novo captcha da web.

# devtools::install_github('platipusc/captchaTJRS')
library(captchaTJRS)
arq <- download('captcha.png')
arq

ler e desenhar: desenhar no rstudio.

arq <- 'captcha.png'
library(captchaTJRS)
arq %>% ler

## # A tibble: 4,800 × 7
##        x     y         r         g         b     cor    id
##    <int> <int>     <dbl>     <dbl>     <dbl>   <chr> <int>
## 1      1    40 0.2627451 0.5294118 0.5411765 #43878A     1
## 2      1    39 0.6039216 0.7960784 0.8235294 #9ACBD2     2
## 3      1    38 0.2470588 0.2980392 0.3607843 #3F4C5C     3
## 4      1    37 0.6941176 0.6980392 0.7058824 #B1B2B4     4
## 5      1    36 0.4235294 0.4666667 0.3333333 #6C7755     5
## 6      1    35 0.5803922 0.6235294 0.4901961 #949F7D     6
## 7      1    34 0.3215686 0.3215686 0.3215686 #525252     7
## 8      1    33 0.4156863 0.3725490 0.5372549 #6A5F89     8
## 9      1    32 0.3843137 0.2941176 0.6470588 #624BA5     9
## 10     1    31 0.2627451 0.2078431 0.4392157 #433570    10
## # ... with 4,790 more rows
…
