R pragmático
…
re_usp <- regex('usp|universidade de são paulo|ime', ignore_case = TRUE)
re_ufscar <- regex('ufscar|universidade de são carlos', ignore_case = TRUE)
re_ime <- regex('ime', ignore_case = TRUE)
re_unip <- regex('unip', ignore_case = TRUE)

(d_alunos <- read_csv('data/lista_anon.csv'))

## # A tibble: 95 × 7
##             Timestamp                   `Universidade:` `Estou no(a):`
##                 <chr>                             <chr>          <chr>
## 1  9/22/2016 10:10:17                               USP      Graduação
## 2  9/22/2016 10:10:51                               USP      Graduação
## 3  9/22/2016 10:48:56                               Usp      Graduação
## 4  9/22/2016 11:40:02                               USP      Graduação
## 5  9/22/2016 11:45:25                               USP      Graduação
## 6  9/22/2016 11:50:00                           IME USP      Graduação
## 7  9/22/2016 11:57:53                               USP      Graduação
## 8  9/22/2016 12:03:36                               USP      Graduação
## 9  9/22/2016 13:20:47                               USP      Graduação
## 10 9/22/2016 14:34:45 Universidade Federal de São Paulo      Graduação
## # ... with 85 more rows, and 4 more variables: `Curso:` <chr>, `1. Em que
## #   opção você situaria seu conhecimento em R?` <chr>, `2. Você considera
## #   ter conhecimento intermediário/avançado em quais linguagens
## #   abaixo?` <chr>, `3. Você atua no mercado de trabalho?` <chr>
…
